<?xml version="1.0" encoding="utf-8"?>
<!-- Generator: Adobe Illustrator 22.0.0, SVG Export Plug-In . SVG Version: 6.00 Build 0)  -->
<svg version="1.1" id="Layer_1" xmlns="http://www.w3.org/2000/svg" xmlns:xlink="http://www.w3.org/1999/xlink" x="0px" y="0px"
	 viewBox="0 0 1164 573" style="enable-background:new 0 0 1164 573;" xml:space="preserve">
<style type="text/css">
	.st0{fill:#231F20;}
	.st1{fill:#ED1C24;}
	.st2{fill:#00A651;}
	.st3{fill:none;stroke:#808285;stroke-width:2;stroke-miterlimit:2.61;}
</style>
<title>2</title>
<path id="Body" class="st0" d="M334,104.5c29-1.6,57.9-4.5,87-4.2c7-0.1,13.8,2,20.3,4.5c4.9,2.4,4.4,8.7,4.4,13.3
	c3.7,6.9-0.6,14.9,2,22c1.6,4.2,4.8,7.6,6.3,11.9c5.9,15.7,3.8,32.8,7.7,48.9c2.7,11.8,4.4,23.8,8,35.3s4.8,23.6,6.5,35.5
	c2.6,13.8,5.9,27.5,8.6,41.2c3.7,20.6,7,41.3,9.5,62.1c2.7,23.8,5.7,47.6,9.2,71.3c0.9,3.5,3.1,6.8,2.9,10.6c-0.5,4-4.1,6.3-7.3,8.2
	c-8.4,4.6-17.9,6.7-27.1,8.7c-18.2,3.6-36.7,5.6-55.2,7.5c-21.3,1.5-42.6,3.4-64,2.3c-8.4-0.6-16.9-1.1-25-3.6
	c-4.5-1.4-9-3.4-12.1-6.9c-2.8-3.1-3.7-7.4-6.1-10.8c-8.6-10.2-10-24-13.8-36.3c-3.2-9.7-5.2-19.8-8.2-29.5
	c-2.2-7.3-7.4-13.7-7.3-21.5c0-10.1,0-20.4-1.8-30.4c-0.5,5.4-0.9,10.8-1.2,16.2c-0.4,7.1,1.1,14.7-2,21.4c-2.5,5.6-5.5,11-7.2,16.9
	c-5.4,17.8-8.5,36.4-15.3,53.8c-1.3,3.1-3.1,6-5.4,8.5c-2.7,3-3.2,7.3-5.6,10.5c-2.1,3-5.5,4.7-8.7,6.1c-9.2,3.9-19.2,5.2-29.1,5.8
	c-21.6,1.3-43.4,0.8-64.9-1.5c-19-2.2-38.3-3.4-57-7.5c-8-1.8-16.1-3.7-23.4-7.5c-3.6-1.9-7.5-4.9-7.6-9.4
	c-0.5-5.7,4.1-10.3,4.2-16.1c4-26.2,6-52.7,9.5-78.9c2.3-16.9,4.9-33.8,8-50.6c4.6-21.5,9.5-42.9,13.7-64.5
	c2.2-11.6,4.7-23.2,5.7-35c1.4-19.5,5-38.8,10.6-57.5c1.5-5.4,4.6-10.2,6.8-15.3c1.7-4-0.1-8.2-0.7-12.2c-0.7-3.5,1.3-6.7,2.7-9.7
	c0.1-4.7-0.2-10.8,4.6-13.3c7.3-4,15.9-4.1,24.1-4.4c42.4,0.4,84.6,5.2,127,6C289.3,106.8,311.7,106.2,334,104.5 M647.8,100.5
	c16.6-1.3,33.4-3.6,50-1.7c7,0.5,14.3,0.1,21.1,2.3c3.2,4.1-0.2,9.1,0.3,13.7c0.4,3.9,0.4,7.9-0.1,11.8c3.4,4.9,1.8,11.1,3.9,16.4
	c7.7,18.7,14.6,37.8,19.7,57.4c5.1,18.8,9.8,38.1,9.6,57.7c0.7,23.2-2.8,46.3-7.5,69c-4.1,21.3-7.9,42.7-10.8,64.3
	c-1.9,15.5-1.7,31.3-4.2,46.8c-0.4,5.6,1.2,11.5-1.1,16.9c-2.5,5.1-6.1,10.4-11.8,12.2c-13.3,4.5-27.1,7.3-41.2,8.3
	c-8.7,0.8-17.2,2.7-26,2.9c-10.6,0.2-21.3,0.2-31.9-0.3c-9.3-0.3-18.5-2.8-27.3-5.7c-8.7-3-17-8.4-21.4-16.6
	c-1.6-7.2-0.4-14.8-1.8-22.1c-1.4-6.5-0.4-13.1-0.3-19.7c-2.1-66.2-11.9-131.9-15.4-198c-0.1-16.3-1.4-32.6-0.9-49
	c0.2-3.4,1-6.8,2.4-10c-1-2.3-2.2-4.5-2.4-7c0.5-2.1,1.3-4.1,2.3-6c-0.9-2.3-2-4.5-2.2-7c0.3-2,0.8-4,1.4-6
	c-1.2-3.1-3.9-6.4-2.4-9.8c2.8-3.9,7.3-6.2,11.8-7.5s8.8-3.3,13.4-3.7c4.3-0.4,8.4-2.2,12.8-2.6c6.2-0.7,12.4-0.9,18.5-2.2
	C620,102.1,634,101.9,647.8,100.5L647.8,100.5z M1033.9,94.2c6.7-0.1,13.4-1.8,20.1-1.1c6.6,0.5,13.2,0.3,19.6,2.4
	c8.9,2.7,18.4,5.9,24.6,13.3c5,6,5.3,14.1,7.1,21.4c1.1,5-0.3,10.3,1.4,15.2c5.2,13.4,6.2,28.1,4.7,42.3c-3,10.9-1.9,22.2-1.6,33.4
	c0.5,9,0.5,18.1,1.1,27.1c0.5,7.6-0.2,15.3,0,23c0.1,5.3,2.1,10.2,3.7,15.2c5.4,17.6,10.8,35.3,13.5,53.5c1.7,10.7,3,21.5,4.3,32.3
	c1.6,14.4,4.7,28.7,6,43.1c0.6,6.2,0.3,12.5,2,18.5c0.8,3.2,2.2,7.5-1.2,9.7c-9.1,7.2-21.7,7.2-31.2,13.8
	c-4.6,3.3-7.5,8.7-12.7,11.3c-7.6,4-16.1,5.9-24.5,7c-18.4,2.5-37.2,1-55-4.4c-13.1-4.2-25.4-10.4-36.6-18.4
	c-4.1-2.5-3-7.8-4.2-11.8c-5.5-17.6-8.7-35.9-14.6-53.4c-1.6-4.8-4.8-9.1-4.7-14.3c0.1-7.9-0.4-15.8-1.3-23.6
	c-0.2,5.2-0.6,10.4-0.8,15.6c-0.3,5,0.6,10-0.7,14.9c-1.5,5.8-4.6,10.9-6.4,16.6c-3.4,10.7-5.3,21.8-8.2,32.6
	c-1.3,4.9-3.3,9.6-3.7,14.7c-0.5,3.2-0.5,7.1-3.5,9.1c-14.2,10.9-30.5,19.2-48.2,22.5c-20.7,4-43,4.4-62.8-3.7
	c-6.9-2.6-10.3-9.9-16.8-13.2c-9.8-5.3-21.3-6.5-30.9-12.1c-3-1.7-5.1-5.1-4.3-8.6c1-4.3,2.6-8.5,2.8-13c0.5-12,2.3-24,4-35.9
	c2.7-20.4,4.2-40.9,8.3-61.1c4.1-19.5,10.6-38.3,16.7-57.2c2.9-8.4,0.4-17.3,0-25.8c-0.7-6-0.8-12-0.4-18c1.1-11.4,0.8-22.9-1-34.2
	c-2.7-11.4-1.1-23.3,0.7-34.7c0.7-4.9,2.3-9.6,3.6-14.4c1.4-5.1,1-10.5,2.3-15.7c1.8-6.6,2.1-13.9,6.7-19.3c6.6-7,16-10.2,25.2-12.1
	c6.2-1.8,12.8-1.4,19.2-1.8c7-0.5,14,1.4,21,1.4c6.3,0,12.6,1.4,19,1.4c9-0.2,18,0.7,27,0.4s18,1.7,27,0.1c6-0.9,12-0.4,18-0.8
	c8.3,0.2,16.6-1.2,25-0.6c8.8-1.1,17.8,0.1,26.6-1.4C1024.3,94.6,1029.1,94.2,1033.9,94.2L1033.9,94.2z"/>
<path id="Accents" class="st1" d="M553,157.6c54.6-10,111.2-15.3,169.5-17.1l0,0l0,0l0,0c-1-4.7-0.3-9.8-3.2-14
	c0.4-3.9,0.5-7.9,0.1-11.8c-0.4-4.1,2.2-8.6,0.4-12.4l-0.2-0.3c-0.2-0.3-0.4-0.6-0.7-0.9c-1.4-0.4-2.8-0.8-4.2-1h-0.2
	c-1.6-0.3-3.2-0.5-4.8-0.6h-0.2c-1.6-0.1-3.2-0.2-4.9-0.3h-0.2c-1.6-0.1-3.2-0.1-4.9-0.2h-0.2l-1.5-0.1c-1.1-0.1-2.2-0.2-3.4-0.3
	h-0.2c-1.6-0.1-3.2-0.2-4.9-0.3h-0.2c-1.6-0.1-3.2-0.1-4.9-0.1h-0.2c-1.6,0-3.3,0-4.9,0.1h-0.2c-1.6,0.1-3.3,0.1-4.9,0.2H674
	c-1.6,0.1-3.3,0.2-4.9,0.3h-0.2l-4.9,0.4h-0.2l-4.9,0.4h-0.2l-4.9,0.4h-0.2l-4.9,0.4h-0.2h-0.5c-1.5,0.2-2.9,0.3-4.4,0.4h-0.2
	l-4.9,0.4h-0.2l-4.9,0.4h-0.2l-4.9,0.4H628c-1.6,0.1-3.3,0.3-4.9,0.4h-0.2c-1.6,0.2-3.3,0.4-4.9,0.6h-0.2c-1.6,0.2-3.3,0.5-4.9,0.7
	h-0.2c-1.7,0.3-3.3,0.6-4.9,0.9h-0.2l-1.1,0.2c-1.3,0.3-2.5,0.5-3.8,0.7h-0.2c-1.6,0.2-3.3,0.4-4.9,0.6h-0.2
	c-1.6,0.2-3.3,0.3-4.9,0.4h-0.2c-1.4,0.1-2.8,0.3-4.2,0.4l-0.7,0.1h-0.2c-1.7,0.3-3.4,0.6-5,1.1l-0.2,0.1c-1.7,0.4-3.3,0.9-5,1.2
	h-0.2c-0.5,0.1-1,0.2-1.6,0.2c-1.1,0.1-2.3,0.3-3.4,0.6h-0.2c-1.7,0.4-3.3,0.9-5,1.5l-0.2,0.1c-1.5,0.5-3.1,1.1-4.7,1.5l-0.3,0.1
	l-0.2,0.1c-1.7,0.6-3.4,1.3-5,2.1l-0.2,0.1c-2,1-3.7,2.4-5.2,4.1l-0.2,0.2c-0.2,0.3-0.5,0.6-0.7,0.9c-0.7,1.7-0.6,3.7,0.3,5.4
	l0.1,0.3c0.6,1.4,1.5,2.8,2,4.2c-0.7,2-1.1,4-1.4,6c0.2,2.4,1.3,4.7,2.2,7c-1,1.9-1.8,3.9-2.3,6c0.2,2.5,1.4,4.7,2.4,7L553,157.6z
	 M109.3,140.1c40.4-7.2,102.7,7.4,167.6,8.4c52.2,0.8,102.7-12.8,170-11.3l0,0c-0.9-6.3,1.8-13-1.2-18.9l-0.1-0.1v-0.1
	c0-4.5,0.5-10.7-4.1-13.2l-0.1-0.1l-0.1-0.1c-1.6-0.6-3.1-1.2-4.8-1.7h-0.1c-1.6-0.5-3.2-1-4.9-1.4h-0.1c-1.6-0.4-3.3-0.7-4.9-0.9
	h-0.1c-1.6-0.2-3.3-0.3-4.9-0.3H421h-4.6h-0.1h-5h-0.1l-5,0.1H406l-5,0.1h0l-5,0.2h-0.1l-5,0.2h-0.1l-5,0.2h-0.1l-5,0.3h-0.1l-5,0.3
	h-0.1l-5,0.3h-0.1l-5,0.3H365l-5,0.3h-0.1l-5,0.3h0.2l-5,0.3h-0.1l-5,0.3h-0.1l-5,0.3h-0.1l-5,0.3h-0.1h-0.5l-4.4,0.3h-0.1l-5,0.3
	h-0.1l-5,0.3H319l-5,0.3h-0.1l-5,0.2h0.2l-5,0.2h-0.1l-5,0.2h-0.1l-5,0.1h-0.1l-5,0.1h-0.1l-5,0.1h-0.1h-5h-5.2h-4.9h-0.1h-1.3
	l-3.7-0.1H263l-4.9-0.1h-0.1l-4.9-0.2h0l-4.9-0.2H248l-4.9-0.2h-0.1l-4.9-0.2h-0.1l-4.9-0.3h-0.1l-4.9-0.3h-0.1l-4.9-0.3h-0.1
	l-4.9-0.3h-0.1l-4.9-0.3h-0.1l-4.9-0.3h-0.1l-4.9-0.3h-0.1l-4.9-0.3h-0.1l-4.9-0.3h-0.1l-4.9-0.3h-0.1l-4.9-0.3H182l-4.9-0.3h-0.2
	l-4.9-0.2h-0.2l-4.9-0.2h-0.2l-4.9-0.2h-0.2l-4.9-0.2h-0.2l-4.9-0.2h-0.2l-4.9-0.1h-0.2l-4.9-0.1h-0.2H140l-3.5,0.1h-0.2
	c-1.6,0.1-3.3,0.1-4.9,0.3h-0.2c-1.7,0.1-3.3,0.3-5,0.6H126c-1.7,0.3-3.4,0.7-5,1.2l-0.2,0.1c-1.7,0.5-3.4,1.2-5,2.1l-0.1,0.1
	l-0.2,0.1c-4.6,2.6-4.2,8.6-4.3,13.2c-0.5,1.1-1.1,2.3-1.6,3.4l-0.1,0.2c-0.9,1.9-1.3,4-1,6.1c0.1,0.8,0.3,1.6,0.5,2.4v0.1
	C109.8,133.7,110.7,137,109.3,140.1z M953.6,125.7h2.2h2.9l5.1-0.1l5.1-0.1l5.1-0.2l5.1-0.2l5.1-0.2l5.1-0.2l5.1-0.3l5.1-0.3
	l5.1-0.3l5.1-0.3l5.1-0.3l5.1-0.3l5.1-0.3l5.1-0.2l5.1-0.2l5.1-0.1c1.7,0,3.4-0.1,5.1-0.1s3.4,0,5.1,0c1.7,0,3.4,0,5.1,0.1
	c1.7,0.1,3.4,0.1,5.1,0.2c1.7,0.1,3.4,0.2,5.1,0.3c1.7,0.1,3.3,0.3,5.1,0.5c1.7,0.2,3.4,0.4,5.1,0.7c1.6,0.3,3.3,0.6,5,0.9
	c1.7,0.4,3.4,0.8,5,1.2c1.7,0.5,3.4,1,5,1.6c1.7,0.6,3.4,1.3,5,2.1c1.7,0.8,3.3,1.8,4.9,2.8c1.7,1.2,3.4,2.5,4.9,3.9l0.2,0.2
	c0.1-2.1-0.1-4.3-0.5-6.3c-1.7-7.3-2.1-15.4-7.1-21.4c-6.2-7.4-15.7-10.5-24.6-13.3c-6.3-2-13-1.9-19.6-2.4
	c-6.7-0.8-13.4,0.9-20.1,1.1c-4.8,0-9.6,0.4-14.4,1.2c-8.8,1.5-17.7,0.3-26.6,1.4c-8.3-0.6-16.7,0.8-25,0.6c-6,0.3-12-0.1-18,0.8
	c-9,1.5-18-0.5-27-0.1s-18-0.6-27-0.4c-6.3,0-12.6-1.3-19-1.4c-7,0-14-2-21-1.4c-6.4,0.4-13,0.1-19.2,1.8
	c-9.2,1.9-18.6,5.1-25.2,12.1c-4.7,5.4-4.9,12.8-6.7,19.3c-0.6,2.6-0.9,5.2-1.1,7.9l1.6-1c1.7-1.1,3.5-2.1,5.3-3
	c1.8-0.9,3.5-1.8,5.2-2.5c1.7-0.8,3.5-1.5,5.2-2.1s3.5-1.2,5.2-1.7c1.7-0.5,3.4-1,5.2-1.4c1.7-0.4,3.5-0.8,5.2-1.1
	c1.7-0.3,3.4-0.6,5.1-0.8c1.7-0.2,3.4-0.5,5.1-0.6c1.7-0.2,3.4-0.3,5.1-0.4c1.7-0.1,3.4-0.2,5.1-0.3c1.7-0.1,3.4-0.1,5.1-0.1
	c1.7,0,3.4,0,5.1,0c1.7,0,3.4,0,5.1,0.1c1.7,0.1,3.4,0.1,5.1,0.2c1.7,0.1,3.4,0.2,5.1,0.3l5.1,0.3l5.1,0.4l5.1,0.4l5.1,0.4l5.1,0.4
	l5.1,0.4l5.1,0.4l5.1,0.4l5.1,0.3l5.1,0.3c1.7,0.1,3.4,0.2,5.1,0.2c1.7,0.1,3.4,0.1,5.1,0.2c1.7,0.1,3.4,0.1,5.1,0.1
	C950.2,125.8,951.9,125.8,953.6,125.7L953.6,125.7z"/>
<path id="Arms" class="st2" d="M569.3,455.7c4.4,8.2,12.7,13.6,21.4,16.6c8.8,3,18,5.4,27.3,5.7c10.6,0.5,21.3,0.5,31.9,0.3
	c8.7-0.1,17.3-2.1,26-2.9c1.7-0.1,3.3-0.3,5-0.4c-17.9-108.1-20-218.2-29.9-330.3c-33.3,2.9-66,7.1-98,13c-1.2,3-2,6.2-2.2,9.4
	c-0.5,16.3,0.8,32.6,0.9,49c3.5,66.1,13.3,131.8,15.4,198c-0.1,6.5-1,13.2,0.3,19.7C568.9,441,567.7,448.6,569.3,455.7 M416.9,481.4
	c18.5-1.9,37-3.9,55.2-7.5c9.3-2,18.7-4.2,27.1-8.7c3.1-1.9,6.8-4.2,7.3-8.2c0.2-3.8-2.1-7-2.9-10.6c-3.4-23.7-6.5-47.5-9.2-71.3
	c-2.5-20.8-5.8-41.5-9.5-62.1c-2.7-13.8-6.1-27.4-8.6-41.2c-1.8-11.9-3-23.9-6.5-35.5s-5.3-23.6-8-35.3c-3.9-16.1-1.8-33.2-7.7-48.9
	c-1.5-4.3-4.6-7.7-6.3-11.9c-0.3-0.9-0.6-1.9-0.7-2.9c-65.6-1.5-115.2,11.4-165.9,11.3c-3,65.4-3.5,130.8-2.6,196.1
	c1.9,10,1.8,20.2,1.8,30.4c0,7.9,5.2,14.3,7.3,21.5c3,9.8,5,19.8,8.2,29.5c3.8,12.3,5.2,26.1,13.8,36.3c2.4,3.4,3.3,7.7,6.1,10.8
	c3.2,3.6,7.7,5.5,12.1,6.9c8.1,2.4,16.6,3,25,3.6C374.3,484.8,395.6,482.9,416.9,481.4z M954.5,349.5c1,7.8,1.4,15.7,1.4,23.5
	c-0.2,5.2,3.1,9.6,4.7,14.3c6,17.5,9.1,35.8,14.6,53.4c1.2,4,0.1,9.3,4.2,11.8c11.2,8,23.5,14.2,36.6,18.4c17.8,5.5,36.6,7,55,4.4
	c8.4-1.1,17-3,24.5-7c5.2-2.6,8-8,12.7-11.3c9.5-6.6,22.1-6.6,31.2-13.8c3.4-2.3,2-6.5,1.2-9.7c-1.7-6-1.4-12.3-2-18.5
	c-1.3-14.5-4.4-28.7-6-43.1c-1.3-10.8-2.5-21.5-4.3-32.3c-2.7-18.2-8.1-35.9-13.5-53.5c-1.5-5-3.6-9.9-3.7-15.2
	c-0.2-7.6,0.5-15.3,0-23c-0.7-9-0.6-18.1-1.1-27.1c-0.3-11.1-1.4-22.5,1.6-33.3c1.5-14.1,0.5-28.9-4.7-42.3c-1-2.9-0.9-5.9-0.9-8.9
	l-0.2-0.2c-1.5-1.4-3.1-2.7-4.9-3.9c-1.6-1-3.2-2-4.9-2.8c-1.6-0.8-3.3-1.5-5-2.1c-1.6-0.6-3.3-1.1-5-1.6c-1.6-0.4-3.3-0.8-5-1.2
	c-1.7-0.4-3.4-0.7-5-0.9c-1.6-0.3-3.3-0.5-5.1-0.7c-1.7-0.2-3.4-0.3-5.1-0.5c-1.7-0.1-3.3-0.2-5.1-0.3c-1.7-0.1-3.4-0.2-5.1-0.2
	c-1.7,0-3.4-0.1-5.1-0.1s-3.4,0-5.1,0c-1.7,0-3.4,0-5.1,0.1l-5.1,0.1l-5.1,0.2l-5.1,0.2l-5.1,0.3l-5.1,0.3l-5.1,0.3l-5.1,0.3
	l-5.1,0.3l-5.1,0.3l-5.1,0.3l-5.1,0.2l-5.1,0.2l-5.1,0.2l-5.1,0.2l-5.1,0.1l-5.1,0.1h-2.9c0,67.5-2.1,158.5-1.4,226.1
	C954.4,351,954.4,350.3,954.5,349.5z"/>
<path id="Layer-01" class="st3" d="M955.8,125.7c0,67.5-2.1,158.5-1.4,226.1 M650.9,144.7c9.9,112.2,12,222.2,29.9,330.3
	 M281.1,148.5c-3,65.4-3.5,130.7-2.6,196.1"/>
</svg>
