<?xml version="1.0" encoding="utf-8"?>
<!-- Generator: Adobe Illustrator 21.0.0, SVG Export Plug-In . SVG Version: 6.00 Build 0)  -->
<svg version="1.1" id="Layer_1" xmlns="http://www.w3.org/2000/svg" xmlns:xlink="http://www.w3.org/1999/xlink" x="0px" y="0px"
	 viewBox="0 0 1200 706" enable-background="new 0 0 1200 706" xml:space="preserve">
<path id="layer_1-2" fill="#0B233F" d="M426.21,45.88c0.44,2.397,0.601,4.836,0.48,7.27c7.65,10.79,7.06,24.49,9.49,36.93
	c3.7,12.6,3.57,25.83,3.47,38.84c-0.38,6.52,4.01,11.78,5.56,17.85c1.64,5.95,3.3,12.03,3.21,18.26c-0.1,3.45,1.24,6.7,1.77,10.07
	c2.35,12.91,3.63,25.97,5.9,38.89c5.95,40.1,2.45,80.72-0.24,120.93c-0.44,8.35-1.67,16.7-0.6,25.06
	c1.83,21.94,2.5,44.17-1.21,65.96c-0.51,4.05-1.67,7.98-2.19,12.02c2.64,12.99,7.19,25.67,7.95,38.99c0.19,5.48,2.11,10.67,3.19,16
	c4.82,22.01,3.67,44.84,0.2,66.97c-1.89,10.61-1.3,21.45-2.46,32.14c2.62,15.14,7.39,29.87,10.6,44.91
	c0.39,4.68,0.57,9.49-0.59,14.09c-0.69,2.97,0.27,5.98,0.44,8.97c0.09,7.9-5.5,14.25-6.62,21.89c0.57,4.04,2.12,7.89,2.62,11.95
	c-3.31,2.2-7.53,2.3-11.25,3.5c-12.89,2.16-25.83,5.62-39,4.39c-6.18-0.71-13.06-2.6-16.53-8.24c-1.48-1.95-0.9-4.51-0.97-6.76
	c-2.951-2.842-4.967-6.515-5.78-10.53c-1.53-6.74-4.74-13.21-4.42-20.26c-0.13-11.75,2.53-23.26,3.26-34.95
	c0.37-5.57,0.95-11.33-0.71-16.76c-2.48-8.46-4.35-17.08-6.12-25.7c-4.88-19.78-12.23-39.14-13.49-59.64
	c-1.1-11.65,0.54-23.31,0.68-34.96c-0.64-6.23-2.54-12.26-3.12-18.51c-1.47-9.98-0.46-20.17-2.13-30.12
	c-3.57-8.91-7.85-17.69-9.42-27.26c-2.39-12.07-1.54-24.45-3.1-36.61c-0.618-2.158-1.352-4.281-2.2-6.36
	c-3.09-8.46-4.25-17.44-6.28-26.17c-3.16-16.09-9.67-31.22-14.82-46.72c-3.97-11.98-9.23-23.47-13.66-35.28
	c-5.33-9.37-10.79-19.23-19.57-25.83c-5.67,3.42-9.42,9.03-13.08,14.37c-2.52,3.9-5.3,7.72-6.88,12.13
	c-4.15,11.1-9.23,21.85-12.84,33.15c-6.08,18.27-13.83,36.13-16.89,55.25c-2.32,11.57-1.13,23.66-4.72,35
	c-1.977,6.358-4.444,12.554-7.38,18.53c-1.26,4.37-1.29,8.99-1.81,13.49c-0.12,17.14-4.77,33.84-10.17,49.99
	c-0.55,6.32,0.21,12.68-0.15,19.02c-0.67,8.98,0.44,17.97,0.58,26.96c0.11,14.49-2.56,28.85-6.47,42.76
	c-1.38,5.43-3.48,10.71-4.01,16.33c-0.775,8.549-2.115,17.038-4.01,25.41c-1.54,10.81-4.87,21.27-8.82,31.41
	c-0.84,1.92-0.62,4.04-0.67,6.08c0.05,9,0.15,18.01,0.07,27.02c-0.31,8.03-2.04,15.98-1.7,24.05c0.18,2.44-0.88,4.66-2,6.76
	c1.26,5.92-3.46,10.93-8.29,13.49c-10.85,5.07-23.18,2.88-34.42,0.5c-8.82-2.01-18.77-2.63-25.48-9.43
	c1.22-3.69,2.56-7.39,2.85-11.28c-0.569-2.789-1.351-5.531-2.34-8.2c-0.11-1.35-0.22-2.7-0.33-4.04c1.08-2.61,2.04-5.27,3.25-7.82
	c-1.45-5.7,1.39-11.36,0.23-17.05c-2.08-12.86-3.39-25.99-1.97-39c1.1-13.33,3.16-26.6,3.56-39.97
	c-2.33-16.87-4.96-33.91-3.52-50.98c0.633-12.115,2.787-24.102,6.41-35.68c1.56-4.63,0.59-9.58,0.98-14.35
	c0.83-17.21,5.74-33.88,7.62-50.95c-2.302-10.882-3.657-21.944-4.05-33.06c-0.93-13.01,1.53-26.07-0.44-39.03
	c-2.75-42.57-7.04-85.55-0.73-128.02c1.1-6.3,0.38-12.83,2.15-19.04c1.99-6.2,2.19-12.77,3.64-19.1c1.44-5.56,1.36-11.35,2.61-16.95
	c1.58-7.34,3.07-14.76,5.78-21.79c1.96-4.75,1.35-9.99,1.6-15c0.276-11.457,1.514-22.87,3.7-34.12c1.55-6.79,1.35-13.84,3.06-20.59
	c1.36-4.99,3.99-9.49,6.69-13.85l-0.56-0.83c0.2-0.08,0.6-0.23,0.8-0.31c0.42,0.52,0.83,1.05,1.25,1.59
	c6.46,5.39,14.83,7.28,22.74,9.53c18.74,5.03,37.75,9.31,57.09,11.24c19.39,1.96,38.91,4.58,58.42,2.84
	c19.24-1.74,38.417-4.073,57.53-7c9.84-1.43,19.44-4.1,29.16-6.15c7.03-1.58,14.12-2.97,21.01-5.08
	c3.584-1.023,6.647-3.367,8.57-6.56C426.76,50.52,426.39,48.16,426.21,45.88 M942,41.09c23.955-2.143,48.04-2.437,72.04-0.88
	c3.62,0.37,7.35,0.4,10.83,1.59c1.115,2.253,2.003,4.611,2.65,7.04c1.31,6.41,2.93,12.77,3.91,19.25
	c1.4,15.39,4.83,30.52,6.17,45.92c1.182,12.125,3.169,24.159,5.95,36.02c5.35,21.93,9,44.39,9.17,67
	c0.01,11.03,1.72,21.95,2.75,32.91c3.77,32.21,3.15,64.73,1.84,97.07c-0.22,4.96-1.34,9.93-0.64,14.91
	c2.66,17.28,4.06,34.7,5.8,52.09c2.36,17.89,3.63,36.04,2.15,54.07c0.71,9.26,1.91,18.53,1.65,27.84
	c0.28,17.05,2.17,34.04,2.07,51.1c0.07,14.33,0.31,28.67,0.37,43.01c0.22,8.28-0.64,16.85,2.33,24.77
	c0.67,5.73,1.03,11.51,2.02,17.22c0.64,4.99-0.82,9.97-0.36,15c0.49,5.81-2.12,11.44-0.98,17.25c1.2,2.69,3.24,6.04,1.02,8.79
	c0.514,2.654,1.292,5.25,2.32,7.75c-0.93-0.58-2.78-1.74-3.71-2.32c-2.9,3.7-6.62,6.62-9.84,10c-4.57,4.73-9.95,9.03-16.47,10.56
	c-10.77,2.62-22.02,4.66-33.09,2.97c-4.01-0.83-8.45-2.54-10.28-6.5c-1.77-5.4-2.18-11.1-2.6-16.73c-2.2-11.16-3.6-22.45-5.05-33.73
	c-0.53-3.36-0.68-6.79-1.84-10.01c-3.26-9.72-5.82-19.72-10.33-28.96c-0.14-0.55-0.42-1.63-0.57-2.17
	c-6.3-19.61-5.8-40.52-5.87-60.88c-0.39-14.73,2.23-29.41,0.72-44.14c-1.42-8.23-0.16-16.62-1.25-24.88
	c-0.16-4.66-0.24-9.33-1.35-13.87c-2.424-12.649-3.895-25.461-4.4-38.33c-0.88-6.56-0.54-13.19-0.91-19.78
	c-6.65-14.55-10.42-30.31-12.37-46.15c-1.97-14.74-4.07-29.49-7.93-43.88c-3.73-16.61-9.08-32.79-13.79-49.14
	c-5.75-18.77-10.82-37.75-16.73-56.48c-2.4-6.97-4.19-14.8-10.42-19.47c-1.54,0.39-3.3,0.4-4.43,1.65c-3.8,3.6-5.35,8.79-7.14,13.55
	c-4.46,12.71-7.5,25.87-11.51,38.72c-3.85,12.05-7.4,24.19-10.75,36.38c-1.48,4.63-2.87,9.3-4.01,14.03l-0.36,0.59
	c-5.48,18.96-10.59,38.03-15.58,57.13c-4.43,13.99-5.69,28.71-7,43.24c-1.35,10.76-2.94,21.52-5.9,31.97
	c-0.575,2.201-0.797,4.479-0.66,6.75c-0.006,16.098-1.243,32.171-3.7,48.08c-0.62,6.01,0.04,12.09-0.7,18.1
	c-1.16,7.55-0.58,15.21-0.5,22.82c0.84,8,0.59,16.07,1.35,24.08c-0.67,11.02-0.21,22.09-0.94,33.12c-0.72,4.64-0.64,9.35-1.01,14.02
	c-0.98,5.59-1.56,11.31-3.52,16.67c-2.49,7.28-6.86,13.67-10.66,20.3c-1.67,2.65-1.47,5.89-2.02,8.88
	c-1.24,9.13-2.62,18.25-3.86,27.38c-0.97,6.46-2.61,12.81-2.92,19.36c-0.96,4.17-0.55,9.29-4.05,12.37
	c-4.7,4.78-11.87,4.6-18.06,5.3c-12.37,0.49-26.33-0.73-35.6-9.9c-5.33-5.39-10.93-10.59-15.52-16.62
	c-0.72,1.04-1.43,2.08-2.14,3.13c-1.031-1.568-0.754-3.655,0.65-4.9c0.1-3.77-0.46-7.59,1.09-11.15c0.46-8.68,0.93-17.35,1.32-26.04
	c0.96-4.64,0.34-9.42,1.01-14.09c1.03-6.91,0.34-13.94,1.38-20.85c0.44-10.67,0.23-21.35,0.52-32.02
	c0.85-11.38,0.81-22.81,0.97-34.21l0.5-0.69c0.23-7.08,0.19-14.16,0.65-21.23c0.86-11.57,1.36-23.18,1.77-34.78
	c0.41-4.34,1.21-8.66,1.16-13.03c-0.77-19.97-0.99-40.07,1.75-59.9c2.15-22.41,4.08-44.86,7.55-67.12c0.63-3.2,0.2-6.46-0.15-9.66
	c-1.87-25.11-1.46-50.33-0.21-75.46c1.76-15.24,2.53-30.56,2.86-45.89c1.86-19.77,4.31-39.63,9.55-58.82
	c2.01-10.44,4.66-20.79,5.66-31.39c2.47-12.86,3.25-25.92,4.04-38.96c0.764-7.774,2.175-15.471,4.22-23.01
	c0.787-4.445,2.113-8.777,3.95-12.9c9.87-1.88,19.98-1.78,29.98-2.01c19.705-0.609,39.429,0.049,59.05,1.97
	c9.61,0.98,19.29,0.92,28.93,1.54C916.69,43.33,929.36,42.3,942,41.09"/>
<path id="layer_2" fill="#0B233F" d="M188.13,14.57c17.14-2.55,34.51-3.94,51.84-2.97c11.66,0.77,23.3,1.96,34.98,2.42
	c17.37,0.21,34.73,0.28,52.1,0.01c17.31-0.94,34.64-3.03,51.99-1.86c6.29,0.25,12.56,0.82,18.83,1.4c6.91,1.01,14.17,1.13,20.62,4.1
	c5.4,2.22,8.37,9.48,4.82,14.5c1.47,3.34,2.67,6.91,1.79,10.59c0.4,1.03,0.77,2.07,1.11,3.12c0.18,2.28,0.55,4.64-0.04,6.89
	c-1.923,3.193-4.986,5.537-8.57,6.56c-6.89,2.11-13.98,3.5-21.01,5.08c-9.72,2.05-19.32,4.72-29.16,6.15
	c-19.1,2.92-38.277,5.253-57.53,7c-19.51,1.74-39.03-0.88-58.42-2.84c-19.34-1.93-38.35-6.21-57.09-11.24
	c-7.91-2.25-16.28-4.14-22.74-9.53c-0.42-0.54-0.83-1.07-1.25-1.59l-0.23-0.28c-0.909-3.283-0.248-6.801,1.79-9.53
	c-0.578-3.61,0.058-7.311,1.81-10.52c-1.26-2.77-2.71-6.14-0.87-9.01C175.61,17.22,182.35,15.49,188.13,14.57 M935.98,10.22
	c21.92-1.73,43.93-4.03,65.93-2.29c5.65,0.74,11.65-0.02,17.04,2.12c4.59,2.01,6,7.78,3.46,11.96c1.17,3.11,2.33,6.39,1.72,9.77
	c1.46,3.12,2.26,6.76,0.74,10.02c-3.48-1.19-7.21-1.22-10.83-1.59c-24-1.557-48.085-1.263-72.04,0.88
	c-12.64,1.21-25.31,2.24-38.01,2.33c-9.64-0.62-19.32-0.56-28.93-1.54c-19.621-1.921-39.345-2.579-59.05-1.97
	c-10,0.23-20.11,0.13-29.98,2.01c-0.611-2.316-0.549-4.758,0.18-7.04c1.87-4.04-0.18-8.79,2.59-12.56
	c-3.83-5.19,0.93-12.94,7.07-12.96c21.369-1.702,42.839-1.718,64.21-0.05C885.31,11.49,910.69,10.73,935.98,10.22"/>
<g id="layer3">
	<g>
		<defs>
			<path id="SVGID_1_" d="M426.21,45.88c0.44,2.397,0.601,4.836,0.48,7.27c7.65,10.79,7.06,24.49,9.49,36.93
				c3.7,12.6,3.57,25.83,3.47,38.84c-0.38,6.52,4.01,11.78,5.56,17.85c1.64,5.95,3.3,12.03,3.21,18.26
				c-0.1,3.45,1.24,6.7,1.77,10.07c2.35,12.91,3.63,25.97,5.9,38.89c5.95,40.1,2.45,80.72-0.24,120.93
				c-0.44,8.35-1.67,16.7-0.6,25.06c1.83,21.94,2.5,44.17-1.21,65.96c-0.51,4.05-1.67,7.98-2.19,12.02
				c2.64,12.99,7.19,25.67,7.95,38.99c0.19,5.48,2.11,10.67,3.19,16c4.82,22.01,3.67,44.84,0.2,66.97
				c-1.89,10.61-1.3,21.45-2.46,32.14c2.62,15.14,7.39,29.87,10.6,44.91c0.39,4.68,0.57,9.49-0.59,14.09
				c-0.69,2.97,0.27,5.98,0.44,8.97c0.09,7.9-5.5,14.25-6.62,21.89c0.57,4.04,2.12,7.89,2.62,11.95c-3.31,2.2-7.53,2.3-11.25,3.5
				c-12.89,2.16-25.83,5.62-39,4.39c-6.18-0.71-13.06-2.6-16.53-8.24c-1.48-1.95-0.9-4.51-0.97-6.76
				c-2.951-2.842-4.967-6.515-5.78-10.53c-1.53-6.74-4.74-13.21-4.42-20.26c-0.13-11.75,2.53-23.26,3.26-34.95
				c0.37-5.57,0.95-11.33-0.71-16.76c-2.48-8.46-4.35-17.08-6.12-25.7c-4.88-19.78-12.23-39.14-13.49-59.64
				c-1.1-11.65,0.54-23.31,0.68-34.96c-0.64-6.23-2.54-12.26-3.12-18.51c-1.47-9.98-0.46-20.17-2.13-30.12
				c-3.57-8.91-7.85-17.69-9.42-27.26c-2.39-12.07-1.54-24.45-3.1-36.61c-0.618-2.158-1.352-4.281-2.2-6.36
				c-3.09-8.46-4.25-17.44-6.28-26.17c-3.16-16.09-9.67-31.22-14.82-46.72c-3.97-11.98-9.23-23.47-13.66-35.28
				c-5.33-9.37-10.79-19.23-19.57-25.83c-5.67,3.42-9.42,9.03-13.08,14.37c-2.52,3.9-5.3,7.72-6.88,12.13
				c-4.15,11.1-9.23,21.85-12.84,33.15c-6.08,18.27-13.83,36.13-16.89,55.25c-2.32,11.57-1.13,23.66-4.72,35
				c-1.977,6.358-4.444,12.554-7.38,18.53c-1.26,4.37-1.29,8.99-1.81,13.49c-0.12,17.14-4.77,33.84-10.17,49.99
				c-0.55,6.32,0.21,12.68-0.15,19.02c-0.67,8.98,0.44,17.97,0.58,26.96c0.11,14.49-2.56,28.85-6.47,42.76
				c-1.38,5.43-3.48,10.71-4.01,16.33c-0.775,8.549-2.115,17.038-4.01,25.41c-1.54,10.81-4.87,21.27-8.82,31.41
				c-0.84,1.92-0.62,4.04-0.67,6.08c0.05,9,0.15,18.01,0.07,27.02c-0.31,8.03-2.04,15.98-1.7,24.05c0.18,2.44-0.88,4.66-2,6.76
				c1.26,5.92-3.46,10.93-8.29,13.49c-10.85,5.07-23.18,2.88-34.42,0.5c-8.82-2.01-18.77-2.63-25.48-9.43
				c1.22-3.69,2.56-7.39,2.85-11.28c-0.569-2.789-1.351-5.531-2.34-8.2c-0.11-1.35-0.22-2.7-0.33-4.04
				c1.08-2.61,2.04-5.27,3.25-7.82c-1.45-5.7,1.39-11.36,0.23-17.05c-2.08-12.86-3.39-25.99-1.97-39c1.1-13.33,3.16-26.6,3.56-39.97
				c-2.33-16.87-4.96-33.91-3.52-50.98c0.633-12.115,2.787-24.102,6.41-35.68c1.56-4.63,0.59-9.58,0.98-14.35
				c0.83-17.21,5.74-33.88,7.62-50.95c-2.302-10.882-3.657-21.944-4.05-33.06c-0.93-13.01,1.53-26.07-0.44-39.03
				c-2.75-42.57-7.04-85.55-0.73-128.02c1.1-6.3,0.38-12.83,2.15-19.04c1.99-6.2,2.19-12.77,3.64-19.1
				c1.44-5.56,1.36-11.35,2.61-16.95c1.58-7.34,3.07-14.76,5.78-21.79c1.96-4.75,1.35-9.99,1.6-15
				c0.276-11.457,1.514-22.87,3.7-34.12c1.55-6.79,1.35-13.84,3.06-20.59c1.36-4.99,3.99-9.49,6.69-13.85l-0.56-0.83
				c0.2-0.08,0.6-0.23,0.8-0.31c0.42,0.52,0.83,1.05,1.25,1.59c6.46,5.39,14.83,7.28,22.74,9.53c18.74,5.03,37.75,9.31,57.09,11.24
				c19.39,1.96,38.91,4.58,58.42,2.84c19.24-1.74,38.417-4.073,57.53-7c9.84-1.43,19.44-4.1,29.16-6.15
				c7.03-1.58,14.12-2.97,21.01-5.08c3.584-1.023,6.647-3.367,8.57-6.56C426.76,50.52,426.39,48.16,426.21,45.88 M942,41.09
				c23.955-2.143,48.04-2.437,72.04-0.88c3.62,0.37,7.35,0.4,10.83,1.59c1.115,2.253,2.003,4.611,2.65,7.04
				c1.31,6.41,2.93,12.77,3.91,19.25c1.4,15.39,4.83,30.52,6.17,45.92c1.182,12.125,3.169,24.159,5.95,36.02
				c5.35,21.93,9,44.39,9.17,67c0.01,11.03,1.72,21.95,2.75,32.91c3.77,32.21,3.15,64.73,1.84,97.07
				c-0.22,4.96-1.34,9.93-0.64,14.91c2.66,17.28,4.06,34.7,5.8,52.09c2.36,17.89,3.63,36.04,2.15,54.07
				c0.71,9.26,1.91,18.53,1.65,27.84c0.28,17.05,2.17,34.04,2.07,51.1c0.07,14.33,0.31,28.67,0.37,43.01
				c0.22,8.28-0.64,16.85,2.33,24.77c0.67,5.73,1.03,11.51,2.02,17.22c0.64,4.99-0.82,9.97-0.36,15c0.49,5.81-2.12,11.44-0.98,17.25
				c1.2,2.69,3.24,6.04,1.02,8.79c0.514,2.654,1.292,5.25,2.32,7.75c-0.93-0.58-2.78-1.74-3.71-2.32c-2.9,3.7-6.62,6.62-9.84,10
				c-4.57,4.73-9.95,9.03-16.47,10.56c-10.77,2.62-22.02,4.66-33.09,2.97c-4.01-0.83-8.45-2.54-10.28-6.5
				c-1.77-5.4-2.18-11.1-2.6-16.73c-2.2-11.16-3.6-22.45-5.05-33.73c-0.53-3.36-0.68-6.79-1.84-10.01
				c-3.26-9.72-5.82-19.72-10.33-28.96c-0.14-0.55-0.42-1.63-0.57-2.17c-6.3-19.61-5.8-40.52-5.87-60.88
				c-0.39-14.73,2.23-29.41,0.72-44.14c-1.42-8.23-0.16-16.62-1.25-24.88c-0.16-4.66-0.24-9.33-1.35-13.87
				c-2.424-12.649-3.895-25.461-4.4-38.33c-0.88-6.56-0.54-13.19-0.91-19.78c-6.65-14.55-10.42-30.31-12.37-46.15
				c-1.97-14.74-4.07-29.49-7.93-43.88c-3.73-16.61-9.08-32.79-13.79-49.14c-5.75-18.77-10.82-37.75-16.73-56.48
				c-2.4-6.97-4.19-14.8-10.42-19.47c-1.54,0.39-3.3,0.4-4.43,1.65c-3.8,3.6-5.35,8.79-7.14,13.55
				c-4.46,12.71-7.5,25.87-11.51,38.72c-3.85,12.05-7.4,24.19-10.75,36.38c-1.48,4.63-2.87,9.3-4.01,14.03l-0.36,0.59
				c-5.48,18.96-10.59,38.03-15.58,57.13c-4.43,13.99-5.69,28.71-7,43.24c-1.35,10.76-2.94,21.52-5.9,31.97
				c-0.575,2.201-0.797,4.479-0.66,6.75c-0.006,16.098-1.243,32.171-3.7,48.08c-0.62,6.01,0.04,12.09-0.7,18.1
				c-1.16,7.55-0.58,15.21-0.5,22.82c0.84,8,0.59,16.07,1.35,24.08c-0.67,11.02-0.21,22.09-0.94,33.12
				c-0.72,4.64-0.64,9.35-1.01,14.02c-0.98,5.59-1.56,11.31-3.52,16.67c-2.49,7.28-6.86,13.67-10.66,20.3
				c-1.67,2.65-1.47,5.89-2.02,8.88c-1.24,9.13-2.62,18.25-3.86,27.38c-0.97,6.46-2.61,12.81-2.92,19.36
				c-0.96,4.17-0.55,9.29-4.05,12.37c-4.7,4.78-11.87,4.6-18.06,5.3c-12.37,0.49-26.33-0.73-35.6-9.9
				c-5.33-5.39-10.93-10.59-15.52-16.62c-0.72,1.04-1.43,2.08-2.14,3.13c-1.031-1.568-0.754-3.655,0.65-4.9
				c0.1-3.77-0.46-7.59,1.09-11.15c0.46-8.68,0.93-17.35,1.32-26.04c0.96-4.64,0.34-9.42,1.01-14.09
				c1.03-6.91,0.34-13.94,1.38-20.85c0.44-10.67,0.23-21.35,0.52-32.02c0.85-11.38,0.81-22.81,0.97-34.21l0.5-0.69
				c0.23-7.08,0.19-14.16,0.65-21.23c0.86-11.57,1.36-23.18,1.77-34.78c0.41-4.34,1.21-8.66,1.16-13.03
				c-0.77-19.97-0.99-40.07,1.75-59.9c2.15-22.41,4.08-44.86,7.55-67.12c0.63-3.2,0.2-6.46-0.15-9.66
				c-1.87-25.11-1.46-50.33-0.21-75.46c1.76-15.24,2.53-30.56,2.86-45.89c1.86-19.77,4.31-39.63,9.55-58.82
				c2.01-10.44,4.66-20.79,5.66-31.39c2.47-12.86,3.25-25.92,4.04-38.96c0.764-7.774,2.175-15.471,4.22-23.01
				c0.787-4.445,2.113-8.777,3.95-12.9c9.87-1.88,19.98-1.78,29.98-2.01c19.705-0.609,39.429,0.049,59.05,1.97
				c9.61,0.98,19.29,0.92,28.93,1.54C916.69,43.33,929.36,42.3,942,41.09 M188.13,14.57c17.14-2.55,34.51-3.94,51.84-2.97
				c11.66,0.77,23.3,1.96,34.98,2.42c17.37,0.21,34.73,0.28,52.1,0.01c17.31-0.94,34.64-3.03,51.99-1.86
				c6.29,0.25,12.56,0.82,18.83,1.4c6.91,1.01,14.17,1.13,20.62,4.1c5.4,2.22,8.37,9.48,4.82,14.5c1.47,3.34,2.67,6.91,1.79,10.59
				c0.4,1.03,0.77,2.07,1.11,3.12c0.18,2.28,0.55,4.64-0.04,6.89c-1.923,3.193-4.986,5.537-8.57,6.56
				c-6.89,2.11-13.98,3.5-21.01,5.08c-9.72,2.05-19.32,4.72-29.16,6.15c-19.1,2.92-38.277,5.253-57.53,7
				c-19.51,1.74-39.03-0.88-58.42-2.84c-19.34-1.93-38.35-6.21-57.09-11.24c-7.91-2.25-16.28-4.14-22.74-9.53
				c-0.42-0.54-0.83-1.07-1.25-1.59l-0.23-0.28c-0.909-3.283-0.248-6.801,1.79-9.53c-0.578-3.61,0.058-7.311,1.81-10.52
				c-1.26-2.77-2.71-6.14-0.87-9.01C175.61,17.22,182.35,15.49,188.13,14.57 M935.98,10.22c21.92-1.73,43.93-4.03,65.93-2.29
				c5.65,0.74,11.65-0.02,17.04,2.12c4.59,2.01,6,7.78,3.46,11.96c1.17,3.11,2.33,6.39,1.72,9.77c1.46,3.12,2.26,6.76,0.74,10.02
				c-3.48-1.19-7.21-1.22-10.83-1.59c-24-1.557-48.085-1.263-72.04,0.88c-12.64,1.21-25.31,2.24-38.01,2.33
				c-9.64-0.62-19.32-0.56-28.93-1.54c-19.621-1.921-39.345-2.579-59.05-1.97c-10,0.23-20.11,0.13-29.98,2.01
				c-0.611-2.316-0.549-4.758,0.18-7.04c1.87-4.04-0.18-8.79,2.59-12.56c-3.83-5.19,0.93-12.94,7.07-12.96
				c21.369-1.702,42.839-1.718,64.21-0.05C885.31,11.49,910.69,10.73,935.98,10.22"/>
		</defs>
		<clipPath id="SVGID_2_">
			<use xlink:href="#SVGID_1_"  overflow="visible"/>
		</clipPath>
		<path clip-path="url(#SVGID_2_)" fill="#00958F" d="M294.158,292.608l-178.701,178.61l-13.475-20.125l177.794-177.704
			L294.158,292.608z M255.953,688.185L101.982,489.483l15.905-18.266l154.756,199.715L255.953,688.185z M316.364,273.388
			l177.794,177.704l-13.475,20.125l-178.701-178.61L316.364,273.388z M323.497,670.932l154.756-199.715l15.905,18.266
			l-153.97,198.702L323.497,670.932z M901.128,275.639L722.427,461.91l-13.475-20.989l177.794-185.326L901.128,275.639z
			 M862.922,688.185L708.952,480.96l15.905-19.049l154.756,208.282L862.922,688.185z M923.333,255.595l177.794,185.326
			l-13.475,20.989l-178.7-186.271L923.333,255.595z M930.467,670.192l154.756-208.282l15.905,19.049L947.157,688.185
			L930.467,670.192z"/>
	</g>
</g>
</svg>
