<?xml version="1.0" encoding="utf-8"?>
<!-- Generator: Adobe Illustrator 21.0.0, SVG Export Plug-In . SVG Version: 6.00 Build 0)  -->
<svg version="1.1" id="Layer_1" xmlns="http://www.w3.org/2000/svg" xmlns:xlink="http://www.w3.org/1999/xlink" x="0px" y="0px"
	 viewBox="0 0 125 125" enable-background="new 0 0 125 125" xml:space="preserve">
<path id="alpha3" fill="#FFFFFF" d="M36.5,30.4c-0.7,2.7-0.2,5.6-0.3,8.4c4,0,7.9,0,11.8,0c0-1.9,0-3.9,0-5.8
	c10.1-0.3,20.2,0,30.3-0.2c0.1,7.9-0.1,15.7,0.1,23.6c-10.9,0.2-21.8,0.1-32.6,0c-3,2.8-5.8,5.8-8.8,8.6c-1.1,0.9-0.7,2.6-0.9,3.8
	c0.1,11.6,0,23.3,0,34.9c18-0.1,36-0.1,54,0c0.1-5.9,0-11.8,0-17.7c-4,0-7.9-0.1-11.9,0c0,1.9,0.1,3.8,0,5.7
	c-10.1,0.3-20.2-0.1-30.3,0.1c0-7.9,0-15.8,0-23.7c10.9,0,21.8,0.2,32.8-0.1c3-3.3,6.3-6.2,9.4-9.4c-0.1-9.3,0.1-18.7-0.1-28
	c-2.7-3.6-6.3-6.4-9.4-9.7c-11.6,0.1-23.2-0.1-34.8,0.1C42.5,23.8,39.6,27.3,36.5,30.4 M44.5,18.6c12.4-0.4,24.8-0.1,37.2-0.1
	c4,3.5,8,7.3,11.4,11.4c0.1,10.1,0,20.2,0,30.2c-3.8,3.6-7.3,7.4-11.2,10.9c-10.3,0.5-20.7,0.1-31.1,0.2c0.1,6,0,12,0,18
	c8.3,0,16.6,0,24.8,0c0-1.9,0-3.9-0.1-5.8c5.8-0.2,11.7-0.1,17.5,0c-0.1,7.7,0.1,15.5-0.1,23.2c-19.9,0-39.7,0-59.6,0
	c0.1-13.9,0-27.9,0.1-41.8c3.8-3.6,7.4-7.4,11.2-11.1c10.3,0.1,20.7,0.1,31,0c-0.1-6,0.1-12-0.1-18c-8.3,0.2-16.5,0-24.8,0.1
	c0,2,0.1,3.9,0.1,5.9c-5.8,0.1-11.7,0.1-17.5,0c0.2-4-0.1-8.1,0.2-12.1C37.1,25.7,40.8,22.1,44.5,18.6"/>
<path id="alpha2" fill="#050505" d="M44.5,18.6c-3.7,3.5-7.4,7.2-10.9,10.9c-0.3,4,0,8.1-0.2,12.1c5.8,0.1,11.7,0.1,17.5,0
	c0-1.9-0.1-3.9-0.1-5.9c8.3,0,16.5,0.1,24.8-0.1c0.2,6,0,12,0.1,18c-10.3,0.1-20.7,0.1-31,0c-3.8,3.6-7.4,7.4-11.2,11.1
	c-0.1,13.9,0,27.8-0.1,41.8c19.9,0.1,39.7,0,59.6,0c0.2-7.7,0-15.5,0.1-23.2c-5.8-0.1-11.7-0.2-17.5,0c0,1.9,0.1,3.9,0.1,5.8
	c-8.3,0-16.6,0-24.8,0c0-6,0-12,0-18c10.4-0.2,20.8,0.3,31.1-0.2c3.9-3.5,7.4-7.4,11.2-10.9c0-10.1,0.1-20.2,0-30.2
	c-3.4-4.1-7.3-7.9-11.4-11.4C69.3,18.4,56.8,18.2,44.5,18.6 M30.7,28.3c4.1-4.1,8.2-8.2,12.3-12.3c13.4,0.1,26.8-0.1,40.1,0.1
	c4.5,3.6,8.4,8.1,12.6,12.2c0.3,10.6,0,21.2,0.1,31.7c0.3,1.4-1,2.2-1.8,3c-3.7,3.6-7.3,7.2-11,10.9c-9.8,0-19.6,0-29.4,0
	c0,4.2,0,8.3,0,12.5c6.4,0.1,12.8,0,19.3,0c0-2-0.1-4-0.1-5.9c7.7,0.1,15.4-0.1,23.1,0.1c-0.1,9.5-0.1,18.9,0,28.4
	c-21.7,0-43.5,0-65.2,0c0.1-15.1,0-30.2,0-45.3c4.2-4.2,8.4-8.3,12.5-12.5c9.9-0.2,19.8-0.1,29.6-0.1c0-4.2,0-8.4,0.1-12.5
	c-6.4-0.1-12.9-0.1-19.3,0c0,2,0.1,3.9,0.1,5.9c-7.7,0-15.4,0-23,0C30.7,39.1,30.6,33.7,30.7,28.3"/>
<path id="alpha1" fill="#99999B" d="M36.5,30.4c3.1-3.1,5.9-6.6,9.5-9.2c11.6-0.2,23.2,0,34.8-0.1c3.1,3.3,6.7,6.1,9.4,9.7
	c0.1,9.3-0.1,18.7,0.1,28c-3.1,3.2-6.4,6.2-9.4,9.4C70,68.6,59,68.4,48.1,68.3c0,7.9,0,15.8,0,23.7c10.1-0.2,20.2,0.2,30.3-0.1
	c0.1-1.9,0.1-3.8,0-5.7c4-0.1,7.9,0,11.9,0c0,5.9,0.1,11.8,0,17.7c-18-0.1-36-0.1-54,0c0-11.6,0-23.3,0-34.9
	c0.2-1.3-0.3-2.9,0.9-3.8c2.9-2.9,5.8-5.9,8.8-8.6c10.9,0.1,21.8,0.2,32.6,0c-0.2-7.9,0-15.7-0.1-23.6c-10.1,0.2-20.2-0.1-30.3,0.2
	c0,1.9,0,3.8,0,5.8c-4,0-7.9,0-11.8,0C36.4,36.1,35.9,33.2,36.5,30.4"/>
</svg>
