<?xml version="1.0" encoding="utf-8"?>
<!-- Generator: Adobe Illustrator 21.0.0, SVG Export Plug-In . SVG Version: 6.00 Build 0)  -->
<svg version="1.1" id="Layer_1" xmlns="http://www.w3.org/2000/svg" xmlns:xlink="http://www.w3.org/1999/xlink" x="0px" y="0px"
	 viewBox="0 0 125 125" enable-background="new 0 0 125 125" xml:space="preserve">
<path id="alpha3" fill="#FFFFFF" d="M37.9,28.9c-3,2.4-1.2,6.7-1.6,9.9c4,0.1,7.9,0.1,11.8,0c0-1.9,0-3.9,0-5.8
	c10.1-0.3,20.2,0.1,30.3,0c0.1,7.8-0.1,15.6,0.1,23.4c-10.1,0.2-20.3-0.1-30.4,0.1c0.1,3.9,0.1,7.8,0,11.7
	c10.2,0.1,20.3-0.1,30.5,0.1c-0.3,7.8-0.1,15.5-0.1,23.3c-10.1,0.5-20.2-0.1-30.3,0.1c0-1.9,0-3.9,0-5.8c-3.9,0-7.9,0-11.8,0
	c0.1,2.8-0.4,5.7,0.3,8.4c3,3.3,6.2,6.3,9.4,9.4c11.6-0.3,23.2-0.1,34.9-0.1c3.2-3.2,6.4-6.3,9.5-9.6c-0.1-9.4,0-18.8-0.1-28.3
	c-1.2-1.2-2.4-2.4-3.6-3.6c1.2-1.1,2.4-2.3,3.6-3.4c-0.1-8.3-0.1-16.7,0-25.1c-0.1-1.4,0.4-3.2-0.9-4.3c-2.8-2.9-5.7-5.6-8.6-8.5
	c-11.6,0.1-23.3-0.1-34.9,0.1C42.9,23.3,40.7,26.5,37.9,28.9 M44.5,18.6c12.3-0.4,24.8-0.1,37.1-0.1c4.1,3.4,8,7.3,11.4,11.4
	c0.2,10,0,20.1,0.1,30.1c-0.8,0.9-1.7,1.8-2.5,2.7c0.8,0.8,1.7,1.6,2.5,2.3C93,75.2,93.2,85.4,93,95.7c-3.8,3.6-7.4,7.4-11.2,11
	c-12.5-0.1-24.9,0-37.4-0.1c-3.6-3.7-7.3-7.4-11-11.1c0-4.1,0-8.1,0-12.2c5.8,0,11.7-0.1,17.5,0c0,1.9-0.1,3.9-0.1,5.9
	c8.3,0,16.6,0,24.8,0c0-6,0-12,0-18c-10.1-0.1-20.2-0.1-30.3,0c-0.1-5.8,0-11.7-0.1-17.5c10.1,0,20.3,0,30.4,0c-0.1-6,0-12-0.1-18
	c-8.3,0.1-16.5,0-24.8,0c0,2,0.1,3.9,0.1,5.9c-5.8,0.1-11.7,0.1-17.5,0c0.2-4-0.1-8.1,0.2-12.1C37.1,25.7,40.8,22.1,44.5,18.6"/>
<path id="alpha2" fill="#050505" d="M44.5,18.6c-3.8,3.5-7.4,7.2-10.9,10.9c-0.4,4,0,8.1-0.2,12.1c5.8,0.1,11.7,0.1,17.5,0
	c0-1.9-0.1-3.9-0.1-5.9c8.3,0,16.5,0,24.8,0c0.1,6,0,12,0.1,18c-10.1,0.1-20.3,0-30.4,0c0.1,5.8,0,11.6,0.1,17.5
	c10.1-0.1,20.2-0.1,30.3,0c0,6,0,12,0,18c-8.3,0-16.6,0-24.8,0c0-2,0.1-3.9,0.1-5.9c-5.8-0.1-11.7,0-17.5,0c0,4.1,0,8.1,0,12.2
	c3.7,3.7,7.4,7.3,11,11.1c12.5,0.1,24.9,0,37.4,0.1c3.8-3.6,7.4-7.4,11.2-11c0.2-10.2,0-20.5,0.1-30.7c-0.8-0.8-1.6-1.6-2.5-2.3
	c0.8-0.9,1.6-1.8,2.5-2.7c-0.1-10,0.1-20.1-0.1-30.1c-3.5-4-7.3-8-11.4-11.4C69.3,18.4,56.8,18.2,44.5,18.6 M30.7,28.2
	c4.1-4,8.2-8.1,12.3-12.2c12.3,0,24.7,0,37.1,0c1.4,0.2,3.2-0.5,4.2,0.8c3.9,3.7,7.6,7.7,11.5,11.4c0.1,10.3,0,20.6,0.1,30.9
	c0.1,1.2-0.3,2.4-0.8,3.5c1.1,1.6,0.8,3.6,0.8,5.5c0,9.6,0,19.1,0,28.7c-3.9,3.8-7.7,7.7-11.6,11.5c-1.1,1.2-2.9,0.6-4.3,0.8
	c-12.3-0.1-24.6,0-37,0c-3.9-4.2-8.2-7.9-12.1-12.2c-0.7-5.3-0.1-10.8-0.3-16.3c7.7,0,15.3,0,23,0c0,2,0,4,0,6
	c6.4-0.1,12.8,0,19.2,0c-0.1-4.2,0.1-8.4-0.2-12.6c-10.1,0.1-20.2,0.1-30.2,0c0.1-7.6,0.1-15.1,0-22.7c10.1-0.1,20.2,0,30.3,0
	c0-4.2,0-8.4,0.1-12.5c-6.4-0.1-12.9-0.1-19.3,0c0,1.9,0.1,3.9,0.1,5.9c-7.7,0-15.4,0-23,0C30.7,39,30.6,33.6,30.7,28.2"/>
<path id="alpha1" fill="#99999B" d="M37.9,28.9c2.8-2.4,5-5.7,8.1-7.7c11.6-0.2,23.2,0,34.9-0.1c2.8,2.9,5.8,5.6,8.6,8.5
	c1.3,1.1,0.8,2.8,0.9,4.3c-0.1,8.3-0.1,16.7,0,25.1c-1.2,1.1-2.4,2.3-3.6,3.4c1.2,1.2,2.4,2.4,3.6,3.6c0.1,9.4,0,18.8,0.1,28.3
	c-3.1,3.3-6.3,6.4-9.5,9.6c-11.6,0-23.3-0.2-34.9,0.1c-3.2-3.1-6.5-6.1-9.4-9.4c-0.7-2.7-0.2-5.6-0.3-8.4c3.9-0.1,7.9-0.1,11.8,0
	c0,1.9,0,3.9,0,5.8c10.1-0.3,20.2,0.3,30.3-0.1c-0.1-7.8-0.3-15.6,0.1-23.3c-10.2-0.2-20.3,0-30.5-0.1c0.1-3.9,0.1-7.8,0-11.7
	c10.1-0.2,20.3,0.1,30.4-0.1c-0.2-7.8,0-15.6-0.1-23.4c-10.1,0.1-20.2-0.3-30.3,0c0,1.9,0,3.8,0,5.8c-4,0-7.9,0-11.8,0
	C36.7,35.6,34.9,31.3,37.9,28.9"/>
</svg>
